{
  "project_info": {
    "project_number": "988263649446",
    "firebase_url": "https://poliarc-epn.firebaseio.com",
    "project_id": "poliarc-epn",
    "storage_bucket": "poliarc-epn.appspot.com"
  },
  "client": [
    {
      "client_info": {
        "mobilesdk_app_id": "1:988263649446:android:7d51354a080909cd",
        "android_client_info": {
          "package_name": "com.proyecto.briix.poliarc"
        }
      },
      "oauth_client": [
        {
          "client_id": "988263649446-pcm4ig7tpcig4fuauq3o16trqu0iteik.apps.googleusercontent.com",
          "client_type": 1,
          "android_info": {
            "package_name": "com.proyecto.briix.poliarc",
            "certificate_hash": "4f3f269113bff9b5eb08c233b80e37a66c223529"
          }
        },
        {
          "client_id": "988263649446-iusol5b07n6f4ahvp40st8n6srut77ih.apps.googleusercontent.com",
          "client_type": 3
        }
      ],
      "api_key": [
        {
          "current_key": "AIzaSyBuJZy4eVAOCTcoksnwfcWss7e-RYAlhzE"
        }
      ],
      "services": {
        "analytics_service": {
          "status": 1
        },
        "appinvite_service": {
          "status": 2,
          "other_platform_oauth_client": [
            {
              "client_id": "988263649446-iusol5b07n6f4ahvp40st8n6srut77ih.apps.googleusercontent.com",
              "client_type": 3
            }
          ]
        },
        "ads_service": {
          "status": 2
        }
      }
    }
  ],
  "configuration_version": "1"
}